Chapter 6 Search | fulltext manual
…
It shows a license specific to Wiley, and gives the URL so you can look it up.

6.3 Search options

Each of the data sources in ft_search can accept additional configuration. See the ?ft_search docs for details. Each data source has a parameter in ft_search, e.g, europmc data source can be configured with the euroopts parameter. Each of the *opts parameters expects a named list.

Here, we search the phrase “ecology” at Europe PMC.

res <- ft_search(query='ecology', from='europmc')
res$europmc

#> Query: [ecology] 
#> Records found, returned: [389570, 25] 
#>  
#> # A tibble: 25 x 28
#>    id    source pmid  doi   title authorString journalTitle journalVolume
#>    <chr> <chr>  <chr> <chr> <chr> <chr>        <chr>        <chr>        
#>  1 3303… MED    3303… 10.1… "Eff… Chen L, Bao… J Environ M… 277          
#>  2 3219… MED    3219… 10.1… "Rac… Aby MJ.      Adm Policy … 47           
#>  3 3271… MED    3271… 10.1… "Hid… Miriti MN, … Nat Ecol Ev… 4            
#>  4 3299… MED    3299… 10.1… "Evo… O'Keeffe KR… Infect Gene… <NA>         
#>  5 3271… MED    3271… 10.1… "Rec… Schell CJ, … Nat Ecol Ev… 4            
#>  6 3273… MED    3273… 10.1… "Aut… Heidrich L,… Nat Ecol Ev… 4            
#>  7 3299… MED    3299… 10.1… "\"O… Jax K.       Hist Philos… 42           
#>  8 3298… MED    3298… 10.1… "Uni… Albery GF, … J Anim Ecol  <NA>         
#>  9 3304… MED    3304… 10.1… "Mov… Carleton KL… Mol Ecol     <NA>         
#> 10 3304… MED    3304… 10.1… "Imp… Zhang J, Fu… Nat Ecol Ev… <NA>         
#> # … with 15 more rows, and 21 more variables: pubYear <chr>, journalIssn <chr>,
#> #   pageInfo <chr>, pubType <chr>, isOpenAccess <chr>, inEPMC <chr>,
#> #   inPMC <chr>, hasPDF <chr>, hasBook <chr>, hasSuppl <chr>,
#> #   citedByCount <int>, hasReferences <chr>, hasTextMinedTerms <chr>,
#> #   hasDbCrossReferences <chr>, hasLabsLinks <chr>,
#> #   hasTMAccessionNumbers <chr>, firstIndexDate <chr>,
#> #   firstPublicationDate <chr>, issue <chr>,
#> #   bookOrReportDetails$publisher <chr>, $yearOfPublication <int>
…
